<?xml version="1.0" encoding="UTF-8"?>
<svg width="200px" height="78px" viewBox="0 0 200 78" version="1.1" xmlns="http://www.w3.org/2000/svg" xmlns:xlink="http://www.w3.org/1999/xlink">
    <!-- Generator: Sketch 48.2 (47327) - http://www.bohemiancoding.com/sketch -->
    <title>RAD-logo</title>
    <desc>Created with Sketch.</desc>
    <defs>
        <path d="M173.491803,66.1311475 C171.872787,66.1311475 170.646557,66.4590164 169.813115,67.1180328 C168.611148,68.067541 168.009836,69.6695082 168.009836,71.9265574 C168.009836,74.2288525 168.617705,75.855082 169.830164,76.8045902 C170.585574,77.3901639 171.731148,77.6904918 173.268197,77.7055738 L178.56,77.7055738 L178.56,70.8340984 L172.869508,70.8340984 L172.869508,72.8970492 L176.097049,72.8970492 L176.097049,75.6393443 L173.873443,75.6393443 C172.763934,75.6393443 171.988852,75.4111475 171.548197,74.9462295 C170.994754,74.3554098 170.714754,73.2963934 170.714754,71.7698361 C170.714754,70.4852459 170.954098,69.5704918 171.428852,69.0209836 C171.903607,68.4708197 172.68918,68.1940984 173.788197,68.1940984 L178.56,68.1940984 L178.56,66.1311475 L173.491803,66.1311475 Z" id="path-1"></path>
    </defs>
    <g id="Desktop-HD" stroke="none" stroke-width="1" fill="none" fill-rule="evenodd" transform="translate(-65.000000, -29.000000)">
        <g id="RAD-logo" transform="translate(65.000000, 29.000000)">
            <path d="M181.349443,35.5100328 C180.51141,37.1572459 179.36518,38.567082 177.916,39.7415082 C176.46223,40.9133115 174.716,41.8215082 172.676656,42.4621639 C170.637967,43.1060984 168.419607,43.4280656 166.017639,43.4280656 L142.632721,43.4280656 L123.934361,16.364459 L166.017639,16.364459 C168.364525,16.364459 170.542885,16.7152787 172.552721,17.4110164 C174.561902,18.1100328 176.323213,19.0621639 177.83141,20.2628197 C179.339607,21.4634754 180.51141,22.9021639 181.349443,24.5756066 C182.187475,26.2516721 182.60518,28.0674098 182.60518,30.0221639 C182.60518,32.032 182.187475,33.8628197 181.349443,35.5100328 M197.266164,18.1651148 C195.593377,14.7900328 193.257639,11.8831475 190.270098,9.4562623 C187.283869,7.02544262 183.721246,5.14019672 179.588131,3.80052459 C175.455672,2.46085246 170.930426,1.79068852 166.017639,1.79068852 L112.410426,1.79068852 C110.634689,0.598557377 108.430098,-0.000131147541 105.794689,-0.000131147541 C103.015672,-0.000131147541 100.719279,0.652327869 98.9055082,1.95659016 C97.0897705,3.26085246 95.5881311,4.73495082 94.3973115,6.37888525 L67.1750164,44.7697049 C66.2143607,43.8215082 65.3579672,42.9828197 64.6805902,42.3375738 C63.5087869,41.2208525 62.4471475,40.2982295 61.4956721,39.5736393 C63.7874754,39.127082 65.8373115,38.3579016 67.6530492,37.2674098 C69.4687869,36.179541 71.0064918,34.8542951 72.2582951,33.2877377 C73.5173115,31.7251148 74.4838689,29.9677377 75.1500984,28.0129836 C75.823541,26.0575738 76.153377,23.989377 76.153377,21.8110164 C76.153377,17.7880656 75.2451803,14.4936393 73.4373115,11.927082 C71.6215738,9.3572459 69.3146885,7.31855738 66.5258361,5.81036066 C63.728459,4.30216393 60.6314098,3.25495082 57.2196066,2.66937705 C53.8150164,2.08314754 50.5205902,1.79068852 47.3356721,1.79068852 L11.3100984,1.79068852 L-6.55737705e-05,16.364459 L48.7599344,16.364459 C51.7763279,16.364459 54.1225574,16.909377 55.7992787,18.0005246 C57.476,19.0877377 58.3107541,20.7205246 58.3107541,22.9021639 C58.3107541,24.856918 57.3881311,26.3913443 55.543541,27.5074098 C53.7055082,28.6274098 51.4432131,29.1841311 48.7599344,29.1841311 L-6.55737705e-05,29.1841311 L-6.55737705e-05,57.8372459 L17.3428852,57.8372459 L17.3428852,43.0077377 L43.9841967,43.0077377 L56.4655082,57.8372459 L79.8661639,57.8372459 L106.002557,20.8805246 L115.661574,35.1277377 C116.624197,36.4883934 117.630098,37.9487213 118.681246,39.5080656 C119.72977,41.0687213 120.650426,42.3572459 121.44518,43.3775738 C120.083869,43.2647869 118.481902,43.207082 116.638623,43.207082 L97.0340328,43.207082 L86.4025574,57.8372459 L166.017639,57.8372459 C170.875344,57.8372459 175.371738,57.112 179.504852,55.659541 C183.637311,54.2057705 187.199279,52.2103607 190.18682,49.6700328 C193.173705,47.1297049 195.519934,44.1126557 197.226164,40.6201967 C198.928459,37.1316721 199.780918,33.3467541 199.780918,29.2680656 C199.780918,25.2451148 198.942885,21.5480656 197.266164,18.1651148" id="Fill-1" fill="#ED1C24"></path>
            <path d="M59.6060328,23.1589508 C59.5240656,25.4422295 58.365377,27.3327213 56.2257049,28.6271475 C54.1922623,29.8671475 51.6801311,30.496 48.7594754,30.496 L1.31160656,30.496 L1.31160656,56.5255082 L1.31160656,31.0697705 L48.7594754,31.0697705 C51.6801311,31.0697705 54.1922623,30.440918 56.2257049,29.200918 C58.4466885,27.8573115 59.6224262,25.8769836 59.6224262,23.4763279 C59.6224262,23.3668197 59.6093115,23.2658361 59.6060328,23.1589508 Z M11.952918,3.67632787 L47.3358689,3.67632787 C50.4322623,3.67632787 53.6834098,3.96485246 56.9975082,4.536 C60.2466885,5.09337705 63.2420984,6.10386885 65.903082,7.53862295 C68.503082,8.94386885 70.6775082,10.868459 72.3660328,13.2579672 C73.9588197,15.5176393 74.783082,18.4796066 74.8322623,22.0527213 C74.8335738,21.9714098 74.8414426,21.8927213 74.8414426,21.8114098 C74.8414426,18.0868197 74.0086557,15.0153443 72.3660328,12.6841967 C70.6775082,10.2946885 68.5024262,8.37009836 65.903082,6.96485246 C63.2420984,5.53009836 60.2466885,4.51960656 56.9968525,3.96222951 C53.6834098,3.39108197 50.4322623,3.10255738 47.3358689,3.10255738 L11.9522623,3.10255738 L2.67816393,15.0527213 L3.12340984,15.0527213 L11.952918,3.67632787 Z M121.336525,44.6855082 C120.010623,44.5746885 118.429639,44.5189508 116.63882,44.5189508 L97.7024262,44.5189508 L88.9771803,56.5255082 L89.3942295,56.5255082 L97.7024262,45.0927213 L116.63882,45.0927213 C118.429639,45.0927213 120.010623,45.148459 121.336525,45.2592787 L124.320131,45.5078033 L123.842098,44.8940328 L121.336525,44.6855082 Z M182.518164,36.1051803 C181.602098,37.9045246 180.331934,39.4704262 178.738492,40.763541 C177.160787,42.0350164 175.253246,43.0271475 173.072262,43.7123934 C170.914885,44.3937049 168.541115,44.7399344 166.017836,44.7399344 L141.945049,44.7399344 L121.830951,15.6264918 L121.434885,15.6264918 L141.945049,45.3137049 L166.017836,45.3137049 C168.541115,45.3137049 170.914885,44.9674754 173.072262,44.2861639 C175.253246,43.600918 177.160787,42.6087869 178.738492,41.3373115 C180.331934,40.0441967 181.602098,38.4782951 182.518164,36.6789508 C183.446033,34.8546885 183.916852,32.8087869 183.916852,30.5963279 C183.916852,30.4999344 183.910951,30.4055082 183.908984,30.3091148 C183.869639,32.4107541 183.405377,34.360918 182.518164,36.1051803 Z M196.091279,18.7478033 C194.509639,15.5569836 192.272918,12.773377 189.442098,10.4737049 C186.596852,8.15763934 183.145049,6.33206557 179.183738,5.04813115 C175.201443,3.75698361 170.771934,3.10255738 166.017836,3.10255738 L112.010623,3.10255738 L111.680131,2.87960656 C110.129311,1.83895082 108.149639,1.3117377 105.794885,1.3117377 C103.309639,1.3117377 101.249311,1.88681967 99.6709508,3.0212459 C97.9798033,4.23698361 96.5627541,5.62583607 95.4670164,7.13731148 L67.3522623,46.7878033 L66.2539016,45.7025574 C65.2998033,44.760918 64.4486557,43.9287869 63.7752131,43.2868197 C62.6407869,42.2048525 61.6066885,41.3064918 60.700459,40.6173115 L58.9752131,39.3025574 L58.3758689,39.418623 L60.700459,41.191082 C61.6066885,41.8802623 62.6407869,42.778623 63.7752131,43.8605902 C64.4486557,44.5025574 65.2998033,45.3346885 66.2539016,46.2763279 L67.3522623,47.3615738 L95.4676721,7.71108197 C96.5627541,6.19960656 97.9798033,4.8107541 99.6709508,3.59501639 C101.249311,2.46059016 103.309639,1.8855082 105.794885,1.8855082 C108.149639,1.8855082 110.129311,2.41272131 111.680131,3.45337705 L112.010623,3.67632787 L166.017836,3.67632787 C170.771934,3.67632787 175.201443,4.3307541 179.183738,5.62190164 C183.145049,6.90583607 186.596852,8.73140984 189.442098,11.0474754 C192.272918,13.3471475 194.509639,16.1307541 196.091279,19.3215738 C197.628984,22.4238689 198.422426,25.8651803 198.46177,29.5517377 C198.463082,29.4566557 198.469639,29.363541 198.469639,29.268459 C198.469639,25.4717377 197.668984,21.9320656 196.091279,18.7478033 Z" id="Fill-4" fill-opacity="0.2" fill="#FFFFFF"></path>
            <path d="M127.507541,18.2386885 L143.619016,41.5540984 L166.019016,41.5540984 C168.215738,41.5540984 170.265574,41.2577049 172.118033,40.6754098 C173.919344,40.1081967 175.474754,39.3022951 176.738361,38.2852459 C177.979016,37.2819672 178.967213,36.0590164 179.681311,34.6609836 C180.376393,33.2878689 180.732459,31.7285246 180.732459,30.0229508 C180.732459,28.3462295 180.383607,26.837377 179.673443,25.4137705 C178.96,23.9895082 177.949508,22.7527869 176.664262,21.7311475 C175.328525,20.6655738 173.735738,19.8085246 171.942295,19.1829508 C170.129836,18.5567213 168.139016,18.2386885 166.019016,18.2386885 L127.507541,18.2386885 Z" id="Clip-8" fill="#FBC926"></path>
            <path d="M157.336918,35.3672787 C157.536918,35.8662951 157.656918,35.8918689 158.07659,35.5141639 C157.809705,35.4610492 157.582164,35.4158033 157.336918,35.3672787 M140.807738,27.4125246 C140.785443,26.8236721 140.552656,26.5069508 140.121836,26.496459 C140.146754,26.8518689 140.171672,27.204 140.198557,27.5935082 C140.433311,27.524 140.624131,27.4669508 140.807738,27.4125246 M143.249049,21.8485902 C143.331672,21.8531803 143.415607,21.856459 143.497574,21.8676066 C143.839213,21.9135082 143.948721,21.8544918 144.080525,21.5318689 C144.099541,21.4859672 144.113967,21.4072787 144.089705,21.379082 C143.913311,21.1784262 143.727738,20.9849836 143.54282,20.7921967 C143.527082,20.776459 143.492984,20.7718689 143.46741,20.7731803 C143.282492,20.7823607 142.879869,21.136459 142.838557,21.324 C142.758557,21.6872787 142.870033,21.8295738 143.249049,21.8485902 M141.85823,21.2767869 C142.037246,21.121377 142.211016,20.9935082 142.465443,20.9292459 C142.722492,20.8649836 142.936918,20.6328525 143.198557,20.4551475 C142.903475,20.2158033 142.618885,20.0780984 142.284459,20.0682623 C142.026754,20.0603934 141.830689,20.1817049 141.755279,20.4328525 C141.642492,20.8118689 141.552656,21.1974426 141.432,21.659082 C141.612984,21.496459 141.733639,21.3843279 141.85823,21.2767869 M138.764459,27.566623 C139.31659,27.7062951 139.323803,27.7010492 139.41823,27.1502295 C139.447738,26.976459 139.472656,26.8020328 139.510689,26.6308852 C139.549377,26.459082 139.495607,26.3377705 139.31659,26.3548197 C138.962492,26.3895738 138.606426,26.4302295 138.263475,26.5194098 C138.157902,26.5469508 138.095607,26.7403934 138.011016,26.856459 C137.870689,27.0485902 138.04577,27.1082623 138.152656,27.1961311 C138.322492,27.3344918 138.493639,27.4708852 138.663475,27.6085902 C138.679213,27.5902295 138.694951,27.5712131 138.710689,27.5521967 C138.728393,27.5567869 138.746098,27.5620328 138.764459,27.566623 M151.583475,28.6026885 C152.072,28.8721967 152.55659,29.1567869 153.006426,29.486623 C153.300852,29.7030164 153.568393,29.9803934 153.780852,30.2787541 C154.403803,31.1554754 154.990689,32.0584262 155.60118,32.9449836 C155.663475,33.0354754 155.788066,33.1430164 155.883148,33.1430164 C156.915934,33.1423607 157.811016,33.4853115 158.654295,34.0820328 C159.230033,34.4899016 159.894295,34.7797377 160.632,34.4033443 C160.705443,34.3659672 160.790689,34.3397377 160.872,34.3344918 C161.553311,34.2892459 162.161836,34.0085902 162.78741,33.7718689 C163.158557,33.631541 163.383475,33.4354754 163.479869,33.0138361 C163.626098,32.3744918 164.108721,32.1351475 164.713967,32.3803934 C165.663475,32.7646557 166.494295,33.3226885 167.092984,34.1856393 C167.270689,34.4420328 167.484459,34.681377 167.711344,34.8971148 C168.435279,35.5856393 169.341508,35.9358033 170.257574,36.286623 C170.892984,36.5305574 171.491016,36.8767869 172.092328,37.2020328 C172.198557,37.2597377 172.239869,37.4394098 172.310689,37.5626885 C172.176918,37.5980984 172.033967,37.6820328 171.910033,37.6603934 C171.407738,37.5744918 170.909377,37.4630164 170.412328,37.3469508 C170.082492,37.2695738 169.768393,37.121377 169.410361,37.2295738 C169.295607,37.2649836 169.153311,37.2262951 169.026754,37.2020328 C168.355934,37.0708852 167.870033,36.641377 167.395279,36.188918 C167.296262,36.0951475 167.155934,36.0131803 167.02282,35.9908852 C166.49823,35.9017049 166.060852,35.6695738 165.710689,35.2682623 C165.663475,35.2144918 165.602492,35.139082 165.543475,35.1344918 C165.119213,35.1003934 164.659541,34.9692459 164.27659,35.0853115 C163.655607,35.2728525 163.082492,35.6210492 162.493639,35.911541 C162.289705,36.0118689 162.219541,36.2046557 162.229377,36.4249836 C162.251672,36.9626885 162.282492,37.499082 162.297574,38.0367869 C162.30282,38.2230164 162.374951,38.3128525 162.554623,38.3692459 C163.155279,38.5567869 163.689705,38.8735082 164.172328,39.2741639 C164.251016,39.3403934 164.309377,39.441377 164.351344,39.5371148 C164.504131,39.881377 164.62282,40.2426885 164.799213,40.5731803 C164.931016,40.8217049 165.131016,41.0348197 165.317902,41.2853115 C165.252328,41.2885902 165.216918,41.2977705 165.185443,41.2905574 C164.986098,41.2459672 164.784131,41.2072787 164.590033,41.1476066 C163.379541,40.7784262 162.407738,40.1187541 161.934295,38.8892459 C161.82282,38.6007213 161.786098,38.296459 161.433311,38.1600656 C161.295607,38.1069508 161.203148,37.9259672 161.102164,37.7935082 C160.974295,37.6249836 160.858885,37.446623 160.687738,37.2007213 C160.592,37.2820328 160.508721,37.3725246 160.408393,37.4348197 C159.816262,37.8020328 159.224787,38.1699016 158.625443,38.524 C158.265443,38.736459 158.118557,38.7056393 157.889705,38.4203934 C157.294951,38.5620328 156.804459,38.4328525 156.239869,37.9895738 C156.131016,37.9036721 156.025443,37.8053115 155.902164,37.7476066 C154.853639,37.2577705 153.963803,36.5443279 153.133639,35.7561311 C152.629377,35.2774426 152.176262,34.7456393 151.67659,34.2617049 C151.503475,34.0944918 151.273967,33.9594098 151.045115,33.8800656 C150.769049,33.7849836 150.465443,33.7731803 150.176918,33.7102295 C149.899541,33.6499016 149.626754,33.5692459 149.366426,33.5010492 C149.330361,33.5712131 149.315934,33.5869508 149.315279,33.604 C149.266098,34.9128525 148.98282,36.1777705 148.611016,37.4276066 C148.589377,37.5003934 148.57823,37.6158033 148.61823,37.6610492 C148.897574,37.976459 148.830689,38.3318689 148.769705,38.6918689 C148.751344,38.7948197 148.753967,38.9010492 148.746098,39.0262951 C148.92118,38.9876066 149.054951,38.9344918 149.186754,38.9371148 C149.268721,38.939082 149.374951,39.0105574 149.418885,39.0820328 C149.44118,39.1187541 149.371016,39.2584262 149.310033,39.2925246 C149.03659,39.4472787 148.762492,39.619082 148.466098,39.7062951 C148.283148,39.7607213 148.016918,39.739082 147.86282,39.6380984 C147.461508,39.3751475 147.144787,39.0374426 147.167082,38.4879344 C147.193967,37.8236721 147.208393,37.1561311 147.184787,36.4912131 C147.163148,35.8918689 147.110033,35.2899016 147.022164,34.6971148 C146.953311,34.2367869 146.852984,33.7961311 146.224787,33.7148197 C145.841836,33.6649836 145.481836,33.4328525 145.114623,33.2761311 C145.041836,33.2453115 144.978885,33.1869508 144.917246,33.1344918 C144.628721,32.8885902 144.345443,32.6380984 144.054295,32.3954754 C144.000525,32.3508852 143.910033,32.2951475 143.857574,32.311541 C143.628066,32.3830164 143.51659,32.219082 143.380197,32.1010492 C143.282492,32.016459 143.199213,31.9121967 143.092328,31.8433443 C142.848393,31.686623 142.740197,31.4558033 142.671344,31.1843279 C142.772984,31.1410492 142.856262,31.1056393 143.002492,31.0433443 C142.788721,30.8603934 142.619541,30.5935082 142.41823,30.5672787 C141.92118,30.5017049 141.691672,30.1141639 141.696918,29.6669508 C141.698885,29.5607213 141.681836,29.4459672 141.640525,29.348918 C141.480525,28.9744918 141.304131,28.6079344 141.143475,28.2348197 C141.078557,28.0853115 141.039213,27.9246557 140.984787,27.7600656 C140.765115,27.8046557 140.576262,27.8512131 140.384787,27.8780984 C140.232,27.899082 140.184131,27.9758033 140.189377,28.1220328 C140.203803,28.5292459 140.202492,28.9377705 140.22282,29.3449836 C140.228066,29.4453115 140.273967,29.5587541 140.336262,29.6387541 C140.542164,29.9003934 140.535607,30.056459 140.319213,30.2951475 C140.24118,30.3810492 140.174951,30.508918 140.165115,30.6223607 C140.112656,31.2584262 140.082492,31.8971148 140.03659,32.5338361 C140.02282,32.7292459 139.995279,32.9935082 139.757902,32.9777705 C139.531672,32.9620328 139.275279,32.844 139.105443,32.6899016 C138.941508,32.5417049 139.096262,32.3449836 139.224131,32.2053115 C139.329705,32.0899016 139.508721,32.0072787 139.551344,31.8767869 C139.696918,31.4394098 139.795279,30.9869508 139.911344,30.5436721 C139.417574,30.3803934 139.388721,30.3194098 139.506098,29.8217049 C139.521836,29.7521967 139.493639,29.671541 139.483803,29.5967869 C139.464131,29.4492459 139.428721,29.3023607 139.424787,29.1548197 C139.414951,28.8158033 139.430033,28.4754754 139.409705,28.1377705 C139.405115,28.0702295 139.296262,27.9738361 139.21823,27.951541 C138.711344,27.8053115 138.203148,27.6584262 137.687738,27.5495738 C137.434623,27.496459 137.155934,27.4774426 136.903475,27.5246557 C136.434623,27.6125246 135.986754,27.3659672 135.868066,26.8997377 C135.816918,26.7003934 135.842492,26.5462951 136.035279,26.4236721 C136.237246,26.2944918 136.421508,26.1358033 136.612984,25.9882623 C136.88577,25.7777705 136.930361,25.6236721 136.823475,25.2577705 C136.790033,25.2571148 136.753967,25.2538361 136.719213,25.2577705 C136.192,25.311541 136.088393,25.241377 135.932328,24.7436721 C135.811016,24.3541639 135.695607,23.9620328 135.549377,23.5817049 C135.447082,23.3135082 135.46282,23.2348197 135.713967,23.0892459 C135.793311,23.0433443 135.886426,22.9476066 135.896918,22.8649836 C136.031344,21.7600656 136.597246,20.9620328 137.597246,20.4892459 C138.47659,20.0728525 139.256918,20.2105574 139.932328,20.9187541 C140.230033,21.2308852 140.457574,21.6105574 140.715279,21.9607213 C140.759869,22.0210492 140.799213,22.0853115 140.864131,22.1817049 C140.908066,22.0485902 140.937574,21.9712131 140.959213,21.8912131 C141.079213,21.444 141.180197,20.991541 141.317902,20.5502295 C141.571672,19.739082 142.084459,19.5082623 142.83659,19.8800656 C143.14741,20.0341639 143.424131,20.2584262 143.775607,20.4899016 C143.809705,20.3587541 143.853639,20.2380984 143.871344,20.1141639 C143.918557,19.7810492 144.128393,19.6433443 144.435279,19.7758033 C144.612984,19.8525246 144.780197,19.9561311 144.945443,20.059082 C144.993311,20.0892459 145.033967,20.1541639 145.048393,20.2112131 C145.117246,20.4944918 145.283148,20.5935082 145.597902,20.5017049 C145.477902,20.2302295 145.207738,19.9128525 145.721836,19.7567869 C146.068721,20.1908852 146.193967,20.2649836 146.789377,20.4033443 C146.860852,20.4197377 146.92577,20.4656393 146.997246,20.4787541 C147.109377,20.499082 147.22741,20.5253115 147.336918,20.508918 C148.011016,20.4079344 148.684459,20.2853115 149.221508,20.8820328 C149.282492,20.948918 149.367082,20.9994098 149.449049,21.0420328 C149.988066,21.324 150.519213,21.6249836 151.073311,21.8728525 C151.475934,22.0525246 151.684459,22.3482623 151.753967,22.7528525 C151.791344,22.9646557 151.887738,23.096459 152.058885,23.2151475 C152.722492,23.6748197 153.385443,24.136459 154.031344,24.6203934 C154.341508,24.8525246 154.640525,25.111541 154.892984,25.4033443 C155.061508,25.5974426 155.174295,25.8610492 155.246426,26.1121967 C155.293639,26.2774426 155.332984,26.4092459 155.465443,26.5292459 C155.673967,26.7174426 155.635279,26.886623 155.393967,27.0420328 C155.304131,27.099082 155.199869,27.1705574 155.16118,27.2610492 C154.995934,27.6420328 154.677246,27.9679344 154.744787,28.4420328 C154.214295,28.3449836 153.793967,28.5417049 153.388721,28.8210492 C153.30282,28.8800656 153.132984,28.8807213 153.030689,28.8394098 C152.810361,28.7495738 152.60118,28.6249836 152.399869,28.4958033 C151.712656,28.0544918 151.031344,27.6046557 150.34741,27.1587541 C150.259541,27.1023607 150.169705,27.0485902 150.08118,26.9935082 C150.101508,27.1758033 149.912656,27.3876066 150.188066,27.4682623 C150.780852,27.6407213 150.840525,27.724 150.828066,28.3482623 C151.080525,28.4302295 151.353967,28.4761311 151.583475,28.6026885" id="Fill-17" fill="#ED1C24"></path>
            <path d="M134.303475,24.1447869 C134.303475,24.4654426 134.043803,24.7251148 133.722492,24.7251148 C133.401836,24.7251148 133.142164,24.4654426 133.142164,24.1447869 C133.142164,23.8241311 133.401836,23.5638033 133.722492,23.5638033 C134.043803,23.5638033 134.303475,23.8241311 134.303475,24.1447869" id="Fill-19" fill="#FFFFFF"></path>
            <path d="M135.464459,22.2019016 C135.464459,22.5225574 135.204787,22.7822295 134.883475,22.7822295 C134.563475,22.7822295 134.303148,22.5225574 134.303148,22.2019016 C134.303148,21.8812459 134.563475,21.620918 134.883475,21.620918 C135.204787,21.620918 135.464459,21.8812459 135.464459,22.2019016" id="Fill-21" fill="#FFFFFF"></path>
            <path d="M133.722689,22.6168525 C133.722689,22.8463607 133.537115,23.0319344 133.307607,23.0319344 C133.078754,23.0319344 132.892525,22.8463607 132.892525,22.6168525 C132.892525,22.3873443 133.078754,22.2017705 133.307607,22.2017705 C133.537115,22.2017705 133.722689,22.3873443 133.722689,22.6168525" id="Fill-23" fill="#FFFFFF"></path>
            <path d="M133.95318,21.2060984 C133.95318,21.3333115 133.85023,21.436918 133.722361,21.436918 C133.595148,21.436918 133.491541,21.3333115 133.491541,21.2060984 C133.491541,21.0788852 133.595148,20.9752787 133.722361,20.9752787 C133.85023,20.9752787 133.95318,21.0788852 133.95318,21.2060984" id="Fill-25" fill="#FFFFFF"></path>
            <path d="M28.9281967,69.6692459 C28.9281967,69.1367869 28.7918033,68.7571148 28.5183607,68.5321967 C28.244918,68.306623 27.7891803,68.1938361 27.1504918,68.1938361 L23.6855738,68.1938361 L23.6855738,71.2502295 L27.1504918,71.2502295 C28.3354098,71.2502295 28.9281967,70.7243279 28.9281967,69.6692459 M31.8088525,77.7059672 L29.0495082,77.7059672 C29.0134426,77.6036721 28.9334426,77.0535082 28.8055738,76.0561311 C28.7006557,75.0043279 28.4259016,74.2836721 27.9819672,73.8974426 C27.5360656,73.5079344 26.7629508,73.3138361 25.6645902,73.3138361 L23.6855738,73.3138361 L23.6855738,77.7059672 L21.2213115,77.7059672 L21.2213115,66.1308852 L26.8790164,66.1308852 C28.5334426,66.1308852 29.6914754,66.356459 30.3504918,66.8076066 C31.2062295,67.3977705 31.6344262,68.2482623 31.6344262,69.3584262 C31.6344262,71.104 30.9006557,72.2344918 29.4304918,72.7426885 C30.1590164,72.9859672 30.6737705,73.3374426 30.9760656,73.8023607 C31.2763934,74.2633443 31.4606557,74.9807213 31.5308197,75.9538361 C31.5885246,76.728918 31.6809836,77.3125246 31.8088525,77.7059672" id="Fill-27" fill="#ED1C24"></path>
            <path d="M42.6731148,77.7059016 L39.462623,77.7059016 C38.2245902,77.7059016 37.2698361,77.6101639 36.5990164,77.4193443 C35.927541,77.2278689 35.3609836,76.8895082 34.8980328,76.404918 C33.8783607,75.3393443 33.3695082,73.8462295 33.3695082,71.9268852 C33.3695082,69.7990164 34.0239344,68.1767213 35.3321311,67.0665574 C35.7485246,66.7183607 36.1872131,66.4757377 36.6501639,66.3393443 C37.1131148,66.1990164 37.7327869,66.1314754 38.5078689,66.1314754 L42.6731148,66.1314754 L42.6731148,68.1937705 L39.462623,68.1937705 C38.6291803,68.1937705 38.0180328,68.2521311 37.6304918,68.3681967 C37.2429508,68.4842623 36.9216393,68.7091803 36.6672131,69.0442623 C36.4947541,69.2770492 36.3786885,69.5019672 36.3203279,69.7203279 C36.262623,69.942623 36.2114754,70.342623 36.1655738,70.9190164 L42.6731148,70.9190164 L42.6731148,72.9859016 L36.1655738,72.9859016 C36.2455738,73.9695082 36.537377,74.6560656 37.0416393,75.0521311 C37.5452459,75.444918 38.3865574,75.6396721 39.5668852,75.6396721 L42.6731148,75.6396721 L42.6731148,77.7059016 Z" id="Fill-30" fill="#ED1C24"></path>
            <path d="M52.9462295,71.8753443 C52.9462295,70.3691148 52.5947541,69.3238689 51.8878689,68.7337049 C51.4603279,68.3750164 50.7829508,68.1940328 49.8570492,68.1940328 L47.4104918,68.1940328 L47.4104918,75.6392787 L49.8570492,75.6392787 C50.9685246,75.6392787 51.7318033,75.3861639 52.1488525,74.8779672 C52.68,74.2182951 52.9462295,73.2182951 52.9462295,71.8753443 M55.6544262,71.9100984 C55.6544262,74.2937049 55.0878689,75.9297705 53.9540984,76.820918 C53.4327869,77.2241967 52.7790164,77.4871475 51.9914754,77.6032131 C51.5652459,77.6714098 50.8531148,77.7061639 49.8570492,77.7061639 L44.9462295,77.7061639 L44.9462295,66.131082 L49.8570492,66.131082 C51.0491803,66.131082 52.0072131,66.2543607 52.7291803,66.503541 C53.4531148,66.7527213 54.0459016,67.1592787 54.5088525,67.7258361 C54.8439344,68.1428852 55.1186885,68.7369836 55.3337705,69.5055082 C55.5468852,70.2740328 55.6544262,71.076 55.6544262,71.9100984" id="Fill-33" fill="#ED1C24"></path>
            <path d="M66.749377,72.9518033 L65.0929836,68.9078689 L63.4398689,72.9518033 L66.749377,72.9518033 Z M71.2916721,77.7059016 L68.4162623,77.7059016 L67.3028197,75.0147541 L62.8864262,75.0147541 L61.7736393,77.7059016 L58.8818361,77.7059016 L63.672,66.1314754 L66.5001967,66.1314754 L71.2916721,77.7059016 Z" id="Fill-36" fill="#ED1C24"></path>
            <path d="M80.0008525,77.7059016 L77.3811803,77.7059016 C76.7326557,77.7059016 76.292,77.6986885 76.0631475,77.6888525 C74.3824918,77.6068852 73.2283934,76.995082 72.5897049,75.847541 C72.2447869,75.2363934 72.0703607,74.1609836 72.0703607,72.62 L72.0703607,66.1314754 L74.5365902,66.1314754 L74.5365902,72.62 C74.5365902,73.2691803 74.5706885,73.8186885 74.6388852,74.2698361 C74.7549508,74.9872131 75.2159344,75.4140984 76.0283934,75.5544262 C76.3634754,75.6121311 76.8998689,75.6396721 77.6408525,75.6396721 L80.0008525,75.6396721 L80.0008525,77.7059016 Z" id="Fill-39" fill="#ED1C24"></path>
            <path d="M90.4824262,77.7059016 L87.2719344,77.7059016 C86.0358689,77.7059016 85.0791475,77.6101639 84.4096393,77.4193443 C83.7368525,77.2278689 83.1702951,76.8895082 82.7093115,76.404918 C81.6916066,75.3393443 81.1820984,73.8462295 81.1820984,71.9268852 C81.1820984,69.7990164 81.8345574,68.1767213 83.1427541,67.0665574 C83.5591475,66.7183607 83.9998033,66.4757377 84.4607869,66.3393443 C84.9257049,66.1990164 85.5440656,66.1314754 86.3191475,66.1314754 L90.4824262,66.1314754 L90.4824262,68.1937705 L87.2719344,68.1937705 C86.4384918,68.1937705 85.830623,68.2521311 85.4417705,68.3681967 C85.055541,68.4842623 84.7342295,68.7091803 84.4784918,69.0442623 C84.3040656,69.2770492 84.188,69.5019672 84.132918,69.7203279 C84.0752131,69.942623 84.0207869,70.342623 83.9761967,70.9190164 L90.4824262,70.9190164 L90.4824262,72.9859016 L83.9761967,72.9859016 C84.0548852,73.9695082 84.3486557,74.6560656 84.8502951,75.0521311 C85.3558689,75.444918 86.1958689,75.6396721 87.3781639,75.6396721 L90.4824262,75.6396721 L90.4824262,77.7059016 Z" id="Fill-42" fill="#ED1C24"></path>
            <path d="M100.465443,69.6692459 C100.465443,69.1367869 100.329049,68.7571148 100.055607,68.5321967 C99.7821639,68.306623 99.3283934,68.1938361 98.6897049,68.1938361 L95.2228197,68.1938361 L95.2228197,71.2502295 L98.6897049,71.2502295 C99.8713443,71.2502295 100.465443,70.7243279 100.465443,69.6692459 M103.344131,77.7059672 L100.584787,77.7059672 C100.550689,77.6036721 100.468721,77.0535082 100.34282,76.0561311 C100.239869,75.0043279 99.9631475,74.2836721 99.5192131,73.8974426 C99.072,73.5079344 98.3001967,73.3138361 97.2005246,73.3138361 L95.2228197,73.3138361 L95.2228197,77.7059672 L92.7605246,77.7059672 L92.7605246,66.1308852 L98.4162623,66.1308852 C100.072656,66.1308852 101.22741,66.356459 101.886426,66.8076066 C102.743475,67.3977705 103.170361,68.2482623 103.170361,69.3584262 C103.170361,71.104 102.435934,72.2344918 100.967082,72.7426885 C101.69823,72.9859672 102.211016,73.3374426 102.511344,73.8023607 C102.811672,74.2633443 102.999869,74.9807213 103.06741,75.9538361 C103.12577,76.728918 103.21823,77.3125246 103.344131,77.7059672" id="Fill-45" fill="#ED1C24"></path>
            <polygon id="Fill-48" fill="#ED1C24" points="114.782492 68.1938361 110.964131 68.1938361 110.964131 77.7059672 108.501836 77.7059672 108.501836 68.1938361 104.80282 68.1938361 104.80282 66.1308852 114.782492 66.1308852"></polygon>
            <path d="M118.655082,66.1311475 L118.655082,77.7055738 L123.784918,77.7055738 C124.664918,77.7009836 125.302951,77.6662295 125.700984,77.6032787 C126.486557,77.4865574 127.139016,77.2242623 127.661639,76.8209836 C128.79541,75.9298361 129.361967,74.2937705 129.361967,71.9101639 C129.361967,71.0760656 129.253115,70.2734426 129.041967,69.5055738 C128.82623,68.7370492 128.552787,68.1422951 128.215082,67.7259016 C127.754098,67.1586885 127.16,66.7521311 126.438689,66.5029508 C125.714754,66.2537705 124.758033,66.1311475 123.565902,66.1311475 L118.655082,66.1311475 Z M121.117377,68.1940984 L123.565902,68.1940984 C124.491803,68.1940984 125.167869,68.375082 125.59541,68.7337705 C126.302295,69.3239344 126.65377,70.3691803 126.65377,71.8754098 C126.65377,73.2177049 126.386885,74.2183607 125.854426,74.8780328 C125.438033,75.3862295 124.676066,75.6393443 123.565902,75.6393443 L121.117377,75.6393443 L121.117377,68.1940984 Z" id="Clip-53" fill="#FBC926"></path>
            <polygon id="Fill-57" fill="#FBC926" points="131.79082 77.7062295 134.253115 77.7062295 134.253115 66.1311475 131.79082 66.1311475"></polygon>
            <polygon id="Clip-62" fill="#FBC926" points="145.793443 66.1311475 142.340328 74.8432787 138.939016 66.1311475 136.162623 66.1311475 141.039344 77.7055738 143.504918 77.7055738 148.570492 66.1311475"></polygon>
            <polygon id="Fill-65" fill="#FBC926" points="150.83082 77.7062295 153.29377 77.7062295 153.29377 66.1311475 150.83082 66.1311475"></polygon>
            <polygon id="Clip-70" fill="#FBC926" points="163.758033 66.1311475 163.758033 74.7514754 159.144262 66.1311475 156.001311 66.1311475 156.001311 77.7055738 158.344918 77.7055738 158.344918 69.2183607 163.081311 77.7055738 166.100984 77.7055738 166.100984 66.1311475"></polygon>
            <mask id="mask-2" fill="white">
                <use xlink:href="#path-1"></use>
            </mask>
            <use id="Clip-74" fill="#FBC926" xlink:href="#path-1"></use>
        </g>
    </g>
</svg>